%YAML 1.1
%TAG !u! tag:unity3d.com,2011:
--- !u!74 &7400000
AnimationClip:
  m_ObjectHideFlags: 0
  m_CorrespondingSourceObject: {fileID: 0}
  m_PrefabInstance: {fileID: 0}
  m_PrefabAsset: {fileID: 0}
  m_Name: playerRun
  serializedVersion: 6
  m_Legacy: 0
  m_Compressed: 0
  m_UseHighQualityCurve: 1
  m_RotationCurves: []
  m_CompressedRotationCurves: []
  m_EulerCurves: []
  m_PositionCurves: []
  m_ScaleCurves: []
  m_FloatCurves: []
  m_PPtrCurves:
  - curve:
    - time: 0
      value: {fileID: 21300000, guid: bf87401f5a0d15046afd9d51b4b07df6, type: 3}
    - time: 0.016666668
      value: {fileID: 21300000, guid: 1ccb2e3a4bce4c7488b10e81700880f5, type: 3}
    - time: 0.033333335
      value: {fileID: 21300000, guid: f1e67c888b1588d4a880d0e140c564d4, type: 3}
    - time: 0.05
      value: {fileID: 21300000, guid: f181b83b5f6096e478289859d4b38024, type: 3}
    - time: 0.06666667
      value: {fileID: 21300000, guid: 011a4a495ea28324b8ed05f6cdf14ec9, type: 3}
    - time: 0.083333336
      value: {fileID: 21300000, guid: 84f30125f4d92d44ab14ce0df82e57ab, type: 3}
    - time: 0.1
      value: {fileID: 21300000, guid: 682f71cc2645046449c0497555150adb, type: 3}
    - time: 0.11666667
      value: {fileID: 21300000, guid: fa4546820471a2d49a3a742cf68883aa, type: 3}
    - time: 0.13333334
      value: {fileID: 21300000, guid: 95edc5953200ada4fa898936c8378f26, type: 3}
    - time: 0.15
      value: {fileID: 21300000, guid: 280b5822c4b51bd4e9e00af48f4bb118, type: 3}
    - time: 0.16666667
      value: {fileID: 21300000, guid: b53f206e4326a434982e50e56dcb7a22, type: 3}
    - time: 0.18333334
      value: {fileID: 21300000, guid: 7f712996d4d96054b9aa185485b44c2b, type: 3}
    - time: 0.2
      value: {fileID: 21300000, guid: 55831a723886c844f9a3eb18fb2008e9, type: 3}
    - time: 0.21666667
      value: {fileID: 21300000, guid: f100f827f5fb1a44aa3f7c3339e99b9e, type: 3}
    - time: 0.23333333
      value: {fileID: 21300000, guid: 214698ec4325c99498dfb36b1edd1aa1, type: 3}
    - time: 0.25
      value: {fileID: 21300000, guid: d53140b7be3ceb944aade0b9079fdff3, type: 3}
    - time: 0.26666668
      value: {fileID: 21300000, guid: c6ee0c19a1206f146a35717e12ae4978, type: 3}
    - time: 0.28333333
      value: {fileID: 21300000, guid: 4b54479921e783647aec1f47e38d6dbe, type: 3}
    - time: 0.3
      value: {fileID: 21300000, guid: d45bcd4e4774a8c468b8e82f1974dcc1, type: 3}
    - time: 0.31666666
      value: {fileID: 21300000, guid: d56478b381de6554dad8d02d77b8507a, type: 3}
    - time: 0.33333334
      value: {fileID: 21300000, guid: a9e3a19d6c611de4e9c8a45551157f85, type: 3}
    - time: 0.35
      value: {fileID: 21300000, guid: 34ea24a9c49b9af45a04713e994c275c, type: 3}
    - time: 0.36666667
      value: {fileID: 21300000, guid: 46b0f220fe0e7114fade15b9f0b162e9, type: 3}
    - time: 0.38333333
      value: {fileID: 21300000, guid: fb10fc9ed2dbac04cb24569f5f15f47b, type: 3}
    - time: 0.4
      value: {fileID: 21300000, guid: 21d20b355ba3b3c4dab78c8d67a4505f, type: 3}
    - time: 0.41666666
      value: {fileID: 21300000, guid: 35016f15e9b64534a9ddb584b425faa2, type: 3}
    - time: 0.43333334
      value: {fileID: 21300000, guid: 24eb5efb39e09fe4b88bb1db31fef663, type: 3}
    - time: 0.45
      value: {fileID: 21300000, guid: 5f861b9a68c28d542a2a975d05e12f38, type: 3}
    - time: 0.46666667
      value: {fileID: 21300000, guid: fc05c4e40ae1f63488e79edc586d0671, type: 3}
    - time: 0.48333332
      value: {fileID: 21300000, guid: fde34e3777f679846967159f3f22c400, type: 3}
    - time: 0.5
      value: {fileID: 21300000, guid: 7f6b701e77762f34082da780a42a95b3, type: 3}
    - time: 0.51666665
      value: {fileID: 21300000, guid: 7acb973bcc53a1e478af35e41325f66c, type: 3}
    - time: 0.53333336
      value: {fileID: 21300000, guid: f3423efa6f97f3f4ea5929ecf9c9ebe9, type: 3}
    - time: 0.55
      value: {fileID: 21300000, guid: 296769e1338593c48b9a0a216c365046, type: 3}
    - time: 0.56666666
      value: {fileID: 21300000, guid: 41814e9a7842a6b4ab34fc0a90da9c85, type: 3}
    - time: 0.5833333
      value: {fileID: 21300000, guid: aa12c3d6e904b50459314d9cffecacb9, type: 3}
    - time: 0.6
      value: {fileID: 21300000, guid: 6b215b5293b0459429cba92706da7426, type: 3}
    - time: 0.6166667
      value: {fileID: 21300000, guid: 21f7f388f2f13ee4db66433a86d6afae, type: 3}
    - time: 0.6333333
      value: {fileID: 21300000, guid: 5aca33dba1744ba448ef4c6b6e85aed9, type: 3}
    - time: 0.65
      value: {fileID: 21300000, guid: caa8e3df0e9611f49a7f94b9b52fb8ee, type: 3}
    - time: 0.6666667
      value: {fileID: 21300000, guid: b892fb12a43c087439846848f6c224ec, type: 3}
    - time: 0.68333334
      value: {fileID: 21300000, guid: e7fa56e7839c4054ba244574296a2f23, type: 3}
    attribute: m_Sprite
    path: 
    classID: 212
    script: {fileID: 0}
  m_SampleRate: 60
  m_WrapMode: 0
  m_Bounds:
    m_Center: {x: 0, y: 0, z: 0}
    m_Extent: {x: 0, y: 0, z: 0}
  m_ClipBindingConstant:
    genericBindings:
    - serializedVersion: 2
      path: 0
      attribute: 0
      script: {fileID: 0}
      typeID: 212
      customType: 23
      isPPtrCurve: 1
    pptrCurveMapping:
    - {fileID: 21300000, guid: bf87401f5a0d15046afd9d51b4b07df6, type: 3}
    - {fileID: 21300000, guid: 1ccb2e3a4bce4c7488b10e81700880f5, type: 3}
    - {fileID: 21300000, guid: f1e67c888b1588d4a880d0e140c564d4, type: 3}
    - {fileID: 21300000, guid: f181b83b5f6096e478289859d4b38024, type: 3}
    - {fileID: 21300000, guid: 011a4a495ea28324b8ed05f6cdf14ec9, type: 3}
    - {fileID: 21300000, guid: 84f30125f4d92d44ab14ce0df82e57ab, type: 3}
    - {fileID: 21300000, guid: 682f71cc2645046449c0497555150adb, type: 3}
    - {fileID: 21300000, guid: fa4546820471a2d49a3a742cf68883aa, type: 3}
    - {fileID: 21300000, guid: 95edc5953200ada4fa898936c8378f26, type: 3}
    - {fileID: 21300000, guid: 280b5822c4b51bd4e9e00af48f4bb118, type: 3}
    - {fileID: 21300000, guid: b53f206e4326a434982e50e56dcb7a22, type: 3}
    - {fileID: 21300000, guid: 7f712996d4d96054b9aa185485b44c2b, type: 3}
    - {fileID: 21300000, guid: 55831a723886c844f9a3eb18fb2008e9, type: 3}
    - {fileID: 21300000, guid: f100f827f5fb1a44aa3f7c3339e99b9e, type: 3}
    - {fileID: 21300000, guid: 214698ec4325c99498dfb36b1edd1aa1, type: 3}
    - {fileID: 21300000, guid: d53140b7be3ceb944aade0b9079fdff3, type: 3}
    - {fileID: 21300000, guid: c6ee0c19a1206f146a35717e12ae4978, type: 3}
    - {fileID: 21300000, guid: 4b54479921e783647aec1f47e38d6dbe, type: 3}
    - {fileID: 21300000, guid: d45bcd4e4774a8c468b8e82f1974dcc1, type: 3}
    - {fileID: 21300000, guid: d56478b381de6554dad8d02d77b8507a, type: 3}
    - {fileID: 21300000, guid: a9e3a19d6c611de4e9c8a45551157f85, type: 3}
    - {fileID: 21300000, guid: 34ea24a9c49b9af45a04713e994c275c, type: 3}
    - {fileID: 21300000, guid: 46b0f220fe0e7114fade15b9f0b162e9, type: 3}
    - {fileID: 21300000, guid: fb10fc9ed2dbac04cb24569f5f15f47b, type: 3}
    - {fileID: 21300000, guid: 21d20b355ba3b3c4dab78c8d67a4505f, type: 3}
    - {fileID: 21300000, guid: 35016f15e9b64534a9ddb584b425faa2, type: 3}
    - {fileID: 21300000, guid: 24eb5efb39e09fe4b88bb1db31fef663, type: 3}
    - {fileID: 21300000, guid: 5f861b9a68c28d542a2a975d05e12f38, type: 3}
    - {fileID: 21300000, guid: fc05c4e40ae1f63488e79edc586d0671, type: 3}
    - {fileID: 21300000, guid: fde34e3777f679846967159f3f22c400, type: 3}
    - {fileID: 21300000, guid: 7f6b701e77762f34082da780a42a95b3, type: 3}
    - {fileID: 21300000, guid: 7acb973bcc53a1e478af35e41325f66c, type: 3}
    - {fileID: 21300000, guid: f3423efa6f97f3f4ea5929ecf9c9ebe9, type: 3}
    - {fileID: 21300000, guid: 296769e1338593c48b9a0a216c365046, type: 3}
    - {fileID: 21300000, guid: 41814e9a7842a6b4ab34fc0a90da9c85, type: 3}
    - {fileID: 21300000, guid: aa12c3d6e904b50459314d9cffecacb9, type: 3}
    - {fileID: 21300000, guid: 6b215b5293b0459429cba92706da7426, type: 3}
    - {fileID: 21300000, guid: 21f7f388f2f13ee4db66433a86d6afae, type: 3}
    - {fileID: 21300000, guid: 5aca33dba1744ba448ef4c6b6e85aed9, type: 3}
    - {fileID: 21300000, guid: caa8e3df0e9611f49a7f94b9b52fb8ee, type: 3}
    - {fileID: 21300000, guid: b892fb12a43c087439846848f6c224ec, type: 3}
    - {fileID: 21300000, guid: e7fa56e7839c4054ba244574296a2f23, type: 3}
  m_AnimationClipSettings:
    serializedVersion: 2
    m_AdditiveReferencePoseClip: {fileID: 0}
    m_AdditiveReferencePoseTime: 0
    m_StartTime: 0
    m_StopTime: 0.7
    m_OrientationOffsetY: 0
    m_Level: 0
    m_CycleOffset: 0
    m_HasAdditiveReferencePose: 0
    m_LoopTime: 1
    m_LoopBlend: 0
    m_LoopBlendOrientation: 0
    m_LoopBlendPositionY: 0
    m_LoopBlendPositionXZ: 0
    m_KeepOriginalOrientation: 0
    m_KeepOriginalPositionY: 1
    m_KeepOriginalPositionXZ: 0
    m_HeightFromFeet: 0
    m_Mirror: 0
  m_EditorCurves: []
  m_EulerEditorCurves: []
  m_HasGenericRootTransform: 0
  m_HasMotionFloatCurves: 0
  m_Events: []
